('C:\\Users\\vines\\Documents\\pyproject\\dist\\main.exe',
 True,
 False,
 False,
 'C:\\Users\\vines\\AppData\\Local\\Programs\\Python\\Python311\\Lib\\site-packages\\PyInstaller\\bootloader\\images\\icon-console.ico',
 None,
 False,
 False,
 '<?xml version="1.0" encoding="UTF-8" standalone="yes"?><assembly xmlns="urn:schemas-microsoft-com:asm.v1" manifestVersion="1.0"><assemblyIdentity type="win32" name="main" processorArchitecture="amd64" version="1.0.0.0"/><trustInfo xmlns="urn:schemas-microsoft-com:asm.v3"><security><requestedPrivileges><requestedExecutionLevel level="asInvoker" uiAccess="false"/></requestedPrivileges></security></trustInfo><dependency><dependentAssembly><assemblyIdentity type="win32" name="Microsoft.Windows.Common-Controls" language="*" processorArchitecture="*" version="6.0.0.0" publicKeyToken="6595b64144ccf1df"/></dependentAssembly></dependency><compatibility xmlns="urn:schemas-microsoft-com:compatibility.v1"><application><supportedOS Id="{e2011457-1546-43c5-a5fe-008deee3d3f0}"/><supportedOS Id="{35138b9a-5d96-4fbd-8e2d-a2440225f93a}"/><supportedOS Id="{4a2f28e3-53b9-4441-ba9c-d69d4a4a6e38}"/><supportedOS Id="{1f676c76-80e1-4239-95bb-83d0f6d0da78}"/><supportedOS Id="{8e0f7a12-bfb3-4fe8-b9a5-48fd50a15a9a}"/></application></compatibility><application xmlns="urn:schemas-microsoft-com:asm.v3"><windowsSettings><longPathAware xmlns="http://schemas.microsoft.com/SMI/2016/WindowsSettings">true</longPathAware></windowsSettings></application></assembly>',
 True,
 True,
 False,
 None,
 None,
 None,
 'C:\\Users\\vines\\Documents\\pyproject\\build\\main\\main.pkg',
 [('PYZ-00.pyz',
   'C:\\Users\\vines\\Documents\\pyproject\\build\\main\\PYZ-00.pyz',
   'PYZ'),
  ('struct',
   'C:\\Users\\vines\\Documents\\pyproject\\build\\main\\localpycs\\struct.pyc',
   'PYMODULE'),
  ('pyimod01_archive',
   'C:\\Users\\vines\\Documents\\pyproject\\build\\main\\localpycs\\pyimod01_archive.pyc',
   'PYMODULE'),
  ('pyimod02_importers',
   'C:\\Users\\vines\\Documents\\pyproject\\build\\main\\localpycs\\pyimod02_importers.pyc',
   'PYMODULE'),
  ('pyimod03_ctypes',
   'C:\\Users\\vines\\Documents\\pyproject\\build\\main\\localpycs\\pyimod03_ctypes.pyc',
   'PYMODULE'),
  ('pyimod04_pywin32',
   'C:\\Users\\vines\\Documents\\pyproject\\build\\main\\localpycs\\pyimod04_pywin32.pyc',
   'PYMODULE'),
  ('pyiboot01_bootstrap',
   'C:\\Users\\vines\\AppData\\Local\\Programs\\Python\\Python311\\Lib\\site-packages\\PyInstaller\\loader\\pyiboot01_bootstrap.py',
   'PYSOURCE'),
  ('pyi_rth_inspect',
   'C:\\Users\\vines\\AppData\\Local\\Programs\\Python\\Python311\\Lib\\site-packages\\PyInstaller\\hooks\\rthooks\\pyi_rth_inspect.py',
   'PYSOURCE'),
  ('pyi_rth_pkgres',
   'C:\\Users\\vines\\AppData\\Local\\Programs\\Python\\Python311\\Lib\\site-packages\\PyInstaller\\hooks\\rthooks\\pyi_rth_pkgres.py',
   'PYSOURCE'),
  ('pyi_rth_pkgutil',
   'C:\\Users\\vines\\AppData\\Local\\Programs\\Python\\Python311\\Lib\\site-packages\\PyInstaller\\hooks\\rthooks\\pyi_rth_pkgutil.py',
   'PYSOURCE'),
  ('main', 'C:\\Users\\vines\\Documents\\pyproject\\main.py', 'PYSOURCE'),
  ('python311.dll',
   'C:\\Users\\vines\\AppData\\Local\\Programs\\Python\\Python311\\python311.dll',
   'BINARY'),
  ('VCRUNTIME140.dll',
   'C:\\Users\\vines\\AppData\\Local\\Programs\\Python\\Python311\\VCRUNTIME140.dll',
   'BINARY'),
  ('libwebp-7.dll',
   'C:\\Users\\vines\\AppData\\Local\\Programs\\Python\\Python311\\Lib\\site-packages\\pygame\\libwebp-7.dll',
   'BINARY'),
  ('portmidi.dll',
   'C:\\Users\\vines\\AppData\\Local\\Programs\\Python\\Python311\\Lib\\site-packages\\pygame\\portmidi.dll',
   'BINARY'),
  ('libtiff-5.dll',
   'C:\\Users\\vines\\AppData\\Local\\Programs\\Python\\Python311\\Lib\\site-packages\\pygame\\libtiff-5.dll',
   'BINARY'),
  ('libopus-0.dll',
   'C:\\Users\\vines\\AppData\\Local\\Programs\\Python\\Python311\\Lib\\site-packages\\pygame\\libopus-0.dll',
   'BINARY'),
  ('libjpeg-9.dll',
   'C:\\Users\\vines\\AppData\\Local\\Programs\\Python\\Python311\\Lib\\site-packages\\pygame\\libjpeg-9.dll',
   'BINARY'),
  ('libogg-0.dll',
   'C:\\Users\\vines\\AppData\\Local\\Programs\\Python\\Python311\\Lib\\site-packages\\pygame\\libogg-0.dll',
   'BINARY'),
  ('libpng16-16.dll',
   'C:\\Users\\vines\\AppData\\Local\\Programs\\Python\\Python311\\Lib\\site-packages\\pygame\\libpng16-16.dll',
   'BINARY'),
  ('SDL2.dll',
   'C:\\Users\\vines\\AppData\\Local\\Programs\\Python\\Python311\\Lib\\site-packages\\pygame\\SDL2.dll',
   'BINARY'),
  ('SDL2_mixer.dll',
   'C:\\Users\\vines\\AppData\\Local\\Programs\\Python\\Python311\\Lib\\site-packages\\pygame\\SDL2_mixer.dll',
   'BINARY'),
  ('libopusfile-0.dll',
   'C:\\Users\\vines\\AppData\\Local\\Programs\\Python\\Python311\\Lib\\site-packages\\pygame\\libopusfile-0.dll',
   'BINARY'),
  ('zlib1.dll',
   'C:\\Users\\vines\\AppData\\Local\\Programs\\Python\\Python311\\Lib\\site-packages\\pygame\\zlib1.dll',
   'BINARY'),
  ('SDL2_image.dll',
   'C:\\Users\\vines\\AppData\\Local\\Programs\\Python\\Python311\\Lib\\site-packages\\pygame\\SDL2_image.dll',
   'BINARY'),
  ('SDL2_ttf.dll',
   'C:\\Users\\vines\\AppData\\Local\\Programs\\Python\\Python311\\Lib\\site-packages\\pygame\\SDL2_ttf.dll',
   'BINARY'),
  ('libmodplug-1.dll',
   'C:\\Users\\vines\\AppData\\Local\\Programs\\Python\\Python311\\Lib\\site-packages\\pygame\\libmodplug-1.dll',
   'BINARY'),
  ('freetype.dll',
   'C:\\Users\\vines\\AppData\\Local\\Programs\\Python\\Python311\\Lib\\site-packages\\pygame\\freetype.dll',
   'BINARY'),
  ('_decimal.pyd',
   'C:\\Users\\vines\\AppData\\Local\\Programs\\Python\\Python311\\DLLs\\_decimal.pyd',
   'EXTENSION'),
  ('_hashlib.pyd',
   'C:\\Users\\vines\\AppData\\Local\\Programs\\Python\\Python311\\DLLs\\_hashlib.pyd',
   'EXTENSION'),
  ('_lzma.pyd',
   'C:\\Users\\vines\\AppData\\Local\\Programs\\Python\\Python311\\DLLs\\_lzma.pyd',
   'EXTENSION'),
  ('_bz2.pyd',
   'C:\\Users\\vines\\AppData\\Local\\Programs\\Python\\Python311\\DLLs\\_bz2.pyd',
   'EXTENSION'),
  ('select.pyd',
   'C:\\Users\\vines\\AppData\\Local\\Programs\\Python\\Python311\\DLLs\\select.pyd',
   'EXTENSION'),
  ('_socket.pyd',
   'C:\\Users\\vines\\AppData\\Local\\Programs\\Python\\Python311\\DLLs\\_socket.pyd',
   'EXTENSION'),
  ('_ssl.pyd',
   'C:\\Users\\vines\\AppData\\Local\\Programs\\Python\\Python311\\DLLs\\_ssl.pyd',
   'EXTENSION'),
  ('_ctypes.pyd',
   'C:\\Users\\vines\\AppData\\Local\\Programs\\Python\\Python311\\DLLs\\_ctypes.pyd',
   'EXTENSION'),
  ('_queue.pyd',
   'C:\\Users\\vines\\AppData\\Local\\Programs\\Python\\Python311\\DLLs\\_queue.pyd',
   'EXTENSION'),
  ('pyexpat.pyd',
   'C:\\Users\\vines\\AppData\\Local\\Programs\\Python\\Python311\\DLLs\\pyexpat.pyd',
   'EXTENSION'),
  ('unicodedata.pyd',
   'C:\\Users\\vines\\AppData\\Local\\Programs\\Python\\Python311\\DLLs\\unicodedata.pyd',
   'EXTENSION'),
  ('pygame\\imageext.cp311-win_amd64.pyd',
   'C:\\Users\\vines\\AppData\\Local\\Programs\\Python\\Python311\\Lib\\site-packages\\pygame\\imageext.cp311-win_amd64.pyd',
   'EXTENSION'),
  ('pygame\\context.cp311-win_amd64.pyd',
   'C:\\Users\\vines\\AppData\\Local\\Programs\\Python\\Python311\\Lib\\site-packages\\pygame\\context.cp311-win_amd64.pyd',
   'EXTENSION'),
  ('pygame\\scrap.cp311-win_amd64.pyd',
   'C:\\Users\\vines\\AppData\\Local\\Programs\\Python\\Python311\\Lib\\site-packages\\pygame\\scrap.cp311-win_amd64.pyd',
   'EXTENSION'),
  ('pygame\\mixer.cp311-win_amd64.pyd',
   'C:\\Users\\vines\\AppData\\Local\\Programs\\Python\\Python311\\Lib\\site-packages\\pygame\\mixer.cp311-win_amd64.pyd',
   'EXTENSION'),
  ('pygame\\mixer_music.cp311-win_amd64.pyd',
   'C:\\Users\\vines\\AppData\\Local\\Programs\\Python\\Python311\\Lib\\site-packages\\pygame\\mixer_music.cp311-win_amd64.pyd',
   'EXTENSION'),
  ('pygame\\font.cp311-win_amd64.pyd',
   'C:\\Users\\vines\\AppData\\Local\\Programs\\Python\\Python311\\Lib\\site-packages\\pygame\\font.cp311-win_amd64.pyd',
   'EXTENSION'),
  ('pygame\\_freetype.cp311-win_amd64.pyd',
   'C:\\Users\\vines\\AppData\\Local\\Programs\\Python\\Python311\\Lib\\site-packages\\pygame\\_freetype.cp311-win_amd64.pyd',
   'EXTENSION'),
  ('pygame\\transform.cp311-win_amd64.pyd',
   'C:\\Users\\vines\\AppData\\Local\\Programs\\Python\\Python311\\Lib\\site-packages\\pygame\\transform.cp311-win_amd64.pyd',
   'EXTENSION'),
  ('pygame\\time.cp311-win_amd64.pyd',
   'C:\\Users\\vines\\AppData\\Local\\Programs\\Python\\Python311\\Lib\\site-packages\\pygame\\time.cp311-win_amd64.pyd',
   'EXTENSION'),
  ('pygame\\pixelarray.cp311-win_amd64.pyd',
   'C:\\Users\\vines\\AppData\\Local\\Programs\\Python\\Python311\\Lib\\site-packages\\pygame\\pixelarray.cp311-win_amd64.pyd',
   'EXTENSION'),
  ('pygame\\mask.cp311-win_amd64.pyd',
   'C:\\Users\\vines\\AppData\\Local\\Programs\\Python\\Python311\\Lib\\site-packages\\pygame\\mask.cp311-win_amd64.pyd',
   'EXTENSION'),
  ('pygame\\surface.cp311-win_amd64.pyd',
   'C:\\Users\\vines\\AppData\\Local\\Programs\\Python\\Python311\\Lib\\site-packages\\pygame\\surface.cp311-win_amd64.pyd',
   'EXTENSION'),
  ('pygame\\pixelcopy.cp311-win_amd64.pyd',
   'C:\\Users\\vines\\AppData\\Local\\Programs\\Python\\Python311\\Lib\\site-packages\\pygame\\pixelcopy.cp311-win_amd64.pyd',
   'EXTENSION'),
  ('pygame\\mouse.cp311-win_amd64.pyd',
   'C:\\Users\\vines\\AppData\\Local\\Programs\\Python\\Python311\\Lib\\site-packages\\pygame\\mouse.cp311-win_amd64.pyd',
   'EXTENSION'),
  ('pygame\\key.cp311-win_amd64.pyd',
   'C:\\Users\\vines\\AppData\\Local\\Programs\\Python\\Python311\\Lib\\site-packages\\pygame\\key.cp311-win_amd64.pyd',
   'EXTENSION'),
  ('pygame\\joystick.cp311-win_amd64.pyd',
   'C:\\Users\\vines\\AppData\\Local\\Programs\\Python\\Python311\\Lib\\site-packages\\pygame\\joystick.cp311-win_amd64.pyd',
   'EXTENSION'),
  ('pygame\\image.cp311-win_amd64.pyd',
   'C:\\Users\\vines\\AppData\\Local\\Programs\\Python\\Python311\\Lib\\site-packages\\pygame\\image.cp311-win_amd64.pyd',
   'EXTENSION'),
  ('pygame\\event.cp311-win_amd64.pyd',
   'C:\\Users\\vines\\AppData\\Local\\Programs\\Python\\Python311\\Lib\\site-packages\\pygame\\event.cp311-win_amd64.pyd',
   'EXTENSION'),
  ('pygame\\draw.cp311-win_amd64.pyd',
   'C:\\Users\\vines\\AppData\\Local\\Programs\\Python\\Python311\\Lib\\site-packages\\pygame\\draw.cp311-win_amd64.pyd',
   'EXTENSION'),
  ('pygame\\display.cp311-win_amd64.pyd',
   'C:\\Users\\vines\\AppData\\Local\\Programs\\Python\\Python311\\Lib\\site-packages\\pygame\\display.cp311-win_amd64.pyd',
   'EXTENSION'),
  ('pygame\\math.cp311-win_amd64.pyd',
   'C:\\Users\\vines\\AppData\\Local\\Programs\\Python\\Python311\\Lib\\site-packages\\pygame\\math.cp311-win_amd64.pyd',
   'EXTENSION'),
  ('pygame\\bufferproxy.cp311-win_amd64.pyd',
   'C:\\Users\\vines\\AppData\\Local\\Programs\\Python\\Python311\\Lib\\site-packages\\pygame\\bufferproxy.cp311-win_amd64.pyd',
   'EXTENSION'),
  ('pygame\\color.cp311-win_amd64.pyd',
   'C:\\Users\\vines\\AppData\\Local\\Programs\\Python\\Python311\\Lib\\site-packages\\pygame\\color.cp311-win_amd64.pyd',
   'EXTENSION'),
  ('pygame\\surflock.cp311-win_amd64.pyd',
   'C:\\Users\\vines\\AppData\\Local\\Programs\\Python\\Python311\\Lib\\site-packages\\pygame\\surflock.cp311-win_amd64.pyd',
   'EXTENSION'),
  ('pygame\\rwobject.cp311-win_amd64.pyd',
   'C:\\Users\\vines\\AppData\\Local\\Programs\\Python\\Python311\\Lib\\site-packages\\pygame\\rwobject.cp311-win_amd64.pyd',
   'EXTENSION'),
  ('pygame\\rect.cp311-win_amd64.pyd',
   'C:\\Users\\vines\\AppData\\Local\\Programs\\Python\\Python311\\Lib\\site-packages\\pygame\\rect.cp311-win_amd64.pyd',
   'EXTENSION'),
  ('pygame\\constants.cp311-win_amd64.pyd',
   'C:\\Users\\vines\\AppData\\Local\\Programs\\Python\\Python311\\Lib\\site-packages\\pygame\\constants.cp311-win_amd64.pyd',
   'EXTENSION'),
  ('pygame\\base.cp311-win_amd64.pyd',
   'C:\\Users\\vines\\AppData\\Local\\Programs\\Python\\Python311\\Lib\\site-packages\\pygame\\base.cp311-win_amd64.pyd',
   'EXTENSION'),
  ('PIL\\_webp.cp311-win_amd64.pyd',
   'C:\\Users\\vines\\AppData\\Local\\Programs\\Python\\Python311\\Lib\\site-packages\\PIL\\_webp.cp311-win_amd64.pyd',
   'EXTENSION'),
  ('PIL\\_imagingtk.cp311-win_amd64.pyd',
   'C:\\Users\\vines\\AppData\\Local\\Programs\\Python\\Python311\\Lib\\site-packages\\PIL\\_imagingtk.cp311-win_amd64.pyd',
   'EXTENSION'),
  ('PIL\\_imagingcms.cp311-win_amd64.pyd',
   'C:\\Users\\vines\\AppData\\Local\\Programs\\Python\\Python311\\Lib\\site-packages\\PIL\\_imagingcms.cp311-win_amd64.pyd',
   'EXTENSION'),
  ('PIL\\_imaging.cp311-win_amd64.pyd',
   'C:\\Users\\vines\\AppData\\Local\\Programs\\Python\\Python311\\Lib\\site-packages\\PIL\\_imaging.cp311-win_amd64.pyd',
   'EXTENSION'),
  ('pygame\\zlib1.dll',
   'C:\\Users\\vines\\AppData\\Local\\Programs\\Python\\Python311\\Lib\\site-packages\\pygame\\zlib1.dll',
   'BINARY'),
  ('pygame\\libjpeg-9.dll',
   'C:\\Users\\vines\\AppData\\Local\\Programs\\Python\\Python311\\Lib\\site-packages\\pygame\\libjpeg-9.dll',
   'BINARY'),
  ('libcrypto-1_1.dll',
   'C:\\Users\\vines\\AppData\\Local\\Programs\\Python\\Python311\\DLLs\\libcrypto-1_1.dll',
   'BINARY'),
  ('libssl-1_1.dll',
   'C:\\Users\\vines\\AppData\\Local\\Programs\\Python\\Python311\\DLLs\\libssl-1_1.dll',
   'BINARY'),
  ('libffi-8.dll',
   'C:\\Users\\vines\\AppData\\Local\\Programs\\Python\\Python311\\DLLs\\libffi-8.dll',
   'BINARY'),
  ('base_library.zip',
   'C:\\Users\\vines\\Documents\\pyproject\\build\\main\\base_library.zip',
   'DATA'),
  ('pygame\\freesansbold.ttf',
   'C:\\Users\\vines\\AppData\\Local\\Programs\\Python\\Python311\\Lib\\site-packages\\pygame\\freesansbold.ttf',
   'DATA'),
  ('pygame\\pygame_icon.bmp',
   'C:\\Users\\vines\\AppData\\Local\\Programs\\Python\\Python311\\Lib\\site-packages\\pygame\\pygame_icon.bmp',
   'DATA'),
  ('climage-0.2.0.dist-info\\REQUESTED',
   'c:\\users\\vines\\appdata\\local\\programs\\python\\python311\\lib\\site-packages\\climage-0.2.0.dist-info\\REQUESTED',
   'DATA'),
  ('climage-0.2.0.dist-info\\top_level.txt',
   'c:\\users\\vines\\appdata\\local\\programs\\python\\python311\\lib\\site-packages\\climage-0.2.0.dist-info\\top_level.txt',
   'DATA'),
  ('climage-0.2.0.dist-info\\entry_points.txt',
   'c:\\users\\vines\\appdata\\local\\programs\\python\\python311\\lib\\site-packages\\climage-0.2.0.dist-info\\entry_points.txt',
   'DATA'),
  ('climage-0.2.0.dist-info\\LICENSE',
   'c:\\users\\vines\\appdata\\local\\programs\\python\\python311\\lib\\site-packages\\climage-0.2.0.dist-info\\LICENSE',
   'DATA'),
  ('climage-0.2.0.dist-info\\RECORD',
   'c:\\users\\vines\\appdata\\local\\programs\\python\\python311\\lib\\site-packages\\climage-0.2.0.dist-info\\RECORD',
   'DATA'),
  ('climage-0.2.0.dist-info\\WHEEL',
   'c:\\users\\vines\\appdata\\local\\programs\\python\\python311\\lib\\site-packages\\climage-0.2.0.dist-info\\WHEEL',
   'DATA'),
  ('climage-0.2.0.dist-info\\METADATA',
   'c:\\users\\vines\\appdata\\local\\programs\\python\\python311\\lib\\site-packages\\climage-0.2.0.dist-info\\METADATA',
   'DATA'),
  ('climage-0.2.0.dist-info\\INSTALLER',
   'c:\\users\\vines\\appdata\\local\\programs\\python\\python311\\lib\\site-packages\\climage-0.2.0.dist-info\\INSTALLER',
   'DATA')],
 [],
 False,
 False,
 1700661772,
 [('run.exe',
   'C:\\Users\\vines\\AppData\\Local\\Programs\\Python\\Python311\\Lib\\site-packages\\PyInstaller\\bootloader\\Windows-64bit-intel\\run.exe',
   'EXECUTABLE')])
