('C:\\Users\\vines\\Documents\\pyproject\\build\\main\\PYZ-00.pyz',
 [('PIL',
   'C:\\Users\\vines\\AppData\\Local\\Programs\\Python\\Python311\\Lib\\site-packages\\PIL\\__init__.py',
   'PYMODULE'),
  ('PIL.BlpImagePlugin',
   'C:\\Users\\vines\\AppData\\Local\\Programs\\Python\\Python311\\Lib\\site-packages\\PIL\\BlpImagePlugin.py',
   'PYMODULE'),
  ('PIL.BmpImagePlugin',
   'C:\\Users\\vines\\AppData\\Local\\Programs\\Python\\Python311\\Lib\\site-packages\\PIL\\BmpImagePlugin.py',
   'PYMODULE'),
  ('PIL.BufrStubImagePlugin',
   'C:\\Users\\vines\\AppData\\Local\\Programs\\Python\\Python311\\Lib\\site-packages\\PIL\\BufrStubImagePlugin.py',
   'PYMODULE'),
  ('PIL.CurImagePlugin',
   'C:\\Users\\vines\\AppData\\Local\\Programs\\Python\\Python311\\Lib\\site-packages\\PIL\\CurImagePlugin.py',
   'PYMODULE'),
  ('PIL.DcxImagePlugin',
   'C:\\Users\\vines\\AppData\\Local\\Programs\\Python\\Python311\\Lib\\site-packages\\PIL\\DcxImagePlugin.py',
   'PYMODULE'),
  ('PIL.DdsImagePlugin',
   'C:\\Users\\vines\\AppData\\Local\\Programs\\Python\\Python311\\Lib\\site-packages\\PIL\\DdsImagePlugin.py',
   'PYMODULE'),
  ('PIL.EpsImagePlugin',
   'C:\\Users\\vines\\AppData\\Local\\Programs\\Python\\Python311\\Lib\\site-packages\\PIL\\EpsImagePlugin.py',
   'PYMODULE'),
  ('PIL.ExifTags',
   'C:\\Users\\vines\\AppData\\Local\\Programs\\Python\\Python311\\Lib\\site-packages\\PIL\\ExifTags.py',
   'PYMODULE'),
  ('PIL.FitsImagePlugin',
   'C:\\Users\\vines\\AppData\\Local\\Programs\\Python\\Python311\\Lib\\site-packages\\PIL\\FitsImagePlugin.py',
   'PYMODULE'),
  ('PIL.FliImagePlugin',
   'C:\\Users\\vines\\AppData\\Local\\Programs\\Python\\Python311\\Lib\\site-packages\\PIL\\FliImagePlugin.py',
   'PYMODULE'),
  ('PIL.FpxImagePlugin',
   'C:\\Users\\vines\\AppData\\Local\\Programs\\Python\\Python311\\Lib\\site-packages\\PIL\\FpxImagePlugin.py',
   'PYMODULE'),
  ('PIL.FtexImagePlugin',
   'C:\\Users\\vines\\AppData\\Local\\Programs\\Python\\Python311\\Lib\\site-packages\\PIL\\FtexImagePlugin.py',
   'PYMODULE'),
  ('PIL.GbrImagePlugin',
   'C:\\Users\\vines\\AppData\\Local\\Programs\\Python\\Python311\\Lib\\site-packages\\PIL\\GbrImagePlugin.py',
   'PYMODULE'),
  ('PIL.GifImagePlugin',
   'C:\\Users\\vines\\AppData\\Local\\Programs\\Python\\Python311\\Lib\\site-packages\\PIL\\GifImagePlugin.py',
   'PYMODULE'),
  ('PIL.GimpGradientFile',
   'C:\\Users\\vines\\AppData\\Local\\Programs\\Python\\Python311\\Lib\\site-packages\\PIL\\GimpGradientFile.py',
   'PYMODULE'),
  ('PIL.GimpPaletteFile',
   'C:\\Users\\vines\\AppData\\Local\\Programs\\Python\\Python311\\Lib\\site-packages\\PIL\\GimpPaletteFile.py',
   'PYMODULE'),
  ('PIL.GribStubImagePlugin',
   'C:\\Users\\vines\\AppData\\Local\\Programs\\Python\\Python311\\Lib\\site-packages\\PIL\\GribStubImagePlugin.py',
   'PYMODULE'),
  ('PIL.Hdf5StubImagePlugin',
   'C:\\Users\\vines\\AppData\\Local\\Programs\\Python\\Python311\\Lib\\site-packages\\PIL\\Hdf5StubImagePlugin.py',
   'PYMODULE'),
  ('PIL.IcnsImagePlugin',
   'C:\\Users\\vines\\AppData\\Local\\Programs\\Python\\Python311\\Lib\\site-packages\\PIL\\IcnsImagePlugin.py',
   'PYMODULE'),
  ('PIL.IcoImagePlugin',
   'C:\\Users\\vines\\AppData\\Local\\Programs\\Python\\Python311\\Lib\\site-packages\\PIL\\IcoImagePlugin.py',
   'PYMODULE'),
  ('PIL.ImImagePlugin',
   'C:\\Users\\vines\\AppData\\Local\\Programs\\Python\\Python311\\Lib\\site-packages\\PIL\\ImImagePlugin.py',
   'PYMODULE'),
  ('PIL.Image',
   'C:\\Users\\vines\\AppData\\Local\\Programs\\Python\\Python311\\Lib\\site-packages\\PIL\\Image.py',
   'PYMODULE'),
  ('PIL.ImageChops',
   'C:\\Users\\vines\\AppData\\Local\\Programs\\Python\\Python311\\Lib\\site-packages\\PIL\\ImageChops.py',
   'PYMODULE'),
  ('PIL.ImageCms',
   'C:\\Users\\vines\\AppData\\Local\\Programs\\Python\\Python311\\Lib\\site-packages\\PIL\\ImageCms.py',
   'PYMODULE'),
  ('PIL.ImageColor',
   'C:\\Users\\vines\\AppData\\Local\\Programs\\Python\\Python311\\Lib\\site-packages\\PIL\\ImageColor.py',
   'PYMODULE'),
  ('PIL.ImageFile',
   'C:\\Users\\vines\\AppData\\Local\\Programs\\Python\\Python311\\Lib\\site-packages\\PIL\\ImageFile.py',
   'PYMODULE'),
  ('PIL.ImageFilter',
   'C:\\Users\\vines\\AppData\\Local\\Programs\\Python\\Python311\\Lib\\site-packages\\PIL\\ImageFilter.py',
   'PYMODULE'),
  ('PIL.ImageMode',
   'C:\\Users\\vines\\AppData\\Local\\Programs\\Python\\Python311\\Lib\\site-packages\\PIL\\ImageMode.py',
   'PYMODULE'),
  ('PIL.ImageOps',
   'C:\\Users\\vines\\AppData\\Local\\Programs\\Python\\Python311\\Lib\\site-packages\\PIL\\ImageOps.py',
   'PYMODULE'),
  ('PIL.ImagePalette',
   'C:\\Users\\vines\\AppData\\Local\\Programs\\Python\\Python311\\Lib\\site-packages\\PIL\\ImagePalette.py',
   'PYMODULE'),
  ('PIL.ImageQt',
   'C:\\Users\\vines\\AppData\\Local\\Programs\\Python\\Python311\\Lib\\site-packages\\PIL\\ImageQt.py',
   'PYMODULE'),
  ('PIL.ImageSequence',
   'C:\\Users\\vines\\AppData\\Local\\Programs\\Python\\Python311\\Lib\\site-packages\\PIL\\ImageSequence.py',
   'PYMODULE'),
  ('PIL.ImageShow',
   'C:\\Users\\vines\\AppData\\Local\\Programs\\Python\\Python311\\Lib\\site-packages\\PIL\\ImageShow.py',
   'PYMODULE'),
  ('PIL.ImageTk',
   'C:\\Users\\vines\\AppData\\Local\\Programs\\Python\\Python311\\Lib\\site-packages\\PIL\\ImageTk.py',
   'PYMODULE'),
  ('PIL.ImageWin',
   'C:\\Users\\vines\\AppData\\Local\\Programs\\Python\\Python311\\Lib\\site-packages\\PIL\\ImageWin.py',
   'PYMODULE'),
  ('PIL.ImtImagePlugin',
   'C:\\Users\\vines\\AppData\\Local\\Programs\\Python\\Python311\\Lib\\site-packages\\PIL\\ImtImagePlugin.py',
   'PYMODULE'),
  ('PIL.IptcImagePlugin',
   'C:\\Users\\vines\\AppData\\Local\\Programs\\Python\\Python311\\Lib\\site-packages\\PIL\\IptcImagePlugin.py',
   'PYMODULE'),
  ('PIL.Jpeg2KImagePlugin',
   'C:\\Users\\vines\\AppData\\Local\\Programs\\Python\\Python311\\Lib\\site-packages\\PIL\\Jpeg2KImagePlugin.py',
   'PYMODULE'),
  ('PIL.JpegImagePlugin',
   'C:\\Users\\vines\\AppData\\Local\\Programs\\Python\\Python311\\Lib\\site-packages\\PIL\\JpegImagePlugin.py',
   'PYMODULE'),
  ('PIL.JpegPresets',
   'C:\\Users\\vines\\AppData\\Local\\Programs\\Python\\Python311\\Lib\\site-packages\\PIL\\JpegPresets.py',
   'PYMODULE'),
  ('PIL.McIdasImagePlugin',
   'C:\\Users\\vines\\AppData\\Local\\Programs\\Python\\Python311\\Lib\\site-packages\\PIL\\McIdasImagePlugin.py',
   'PYMODULE'),
  ('PIL.MicImagePlugin',
   'C:\\Users\\vines\\AppData\\Local\\Programs\\Python\\Python311\\Lib\\site-packages\\PIL\\MicImagePlugin.py',
   'PYMODULE'),
  ('PIL.MpegImagePlugin',
   'C:\\Users\\vines\\AppData\\Local\\Programs\\Python\\Python311\\Lib\\site-packages\\PIL\\MpegImagePlugin.py',
   'PYMODULE'),
  ('PIL.MpoImagePlugin',
   'C:\\Users\\vines\\AppData\\Local\\Programs\\Python\\Python311\\Lib\\site-packages\\PIL\\MpoImagePlugin.py',
   'PYMODULE'),
  ('PIL.MspImagePlugin',
   'C:\\Users\\vines\\AppData\\Local\\Programs\\Python\\Python311\\Lib\\site-packages\\PIL\\MspImagePlugin.py',
   'PYMODULE'),
  ('PIL.PaletteFile',
   'C:\\Users\\vines\\AppData\\Local\\Programs\\Python\\Python311\\Lib\\site-packages\\PIL\\PaletteFile.py',
   'PYMODULE'),
  ('PIL.PalmImagePlugin',
   'C:\\Users\\vines\\AppData\\Local\\Programs\\Python\\Python311\\Lib\\site-packages\\PIL\\PalmImagePlugin.py',
   'PYMODULE'),
  ('PIL.PcdImagePlugin',
   'C:\\Users\\vines\\AppData\\Local\\Programs\\Python\\Python311\\Lib\\site-packages\\PIL\\PcdImagePlugin.py',
   'PYMODULE'),
  ('PIL.PcxImagePlugin',
   'C:\\Users\\vines\\AppData\\Local\\Programs\\Python\\Python311\\Lib\\site-packages\\PIL\\PcxImagePlugin.py',
   'PYMODULE'),
  ('PIL.PdfImagePlugin',
   'C:\\Users\\vines\\AppData\\Local\\Programs\\Python\\Python311\\Lib\\site-packages\\PIL\\PdfImagePlugin.py',
   'PYMODULE'),
  ('PIL.PdfParser',
   'C:\\Users\\vines\\AppData\\Local\\Programs\\Python\\Python311\\Lib\\site-packages\\PIL\\PdfParser.py',
   'PYMODULE'),
  ('PIL.PixarImagePlugin',
   'C:\\Users\\vines\\AppData\\Local\\Programs\\Python\\Python311\\Lib\\site-packages\\PIL\\PixarImagePlugin.py',
   'PYMODULE'),
  ('PIL.PngImagePlugin',
   'C:\\Users\\vines\\AppData\\Local\\Programs\\Python\\Python311\\Lib\\site-packages\\PIL\\PngImagePlugin.py',
   'PYMODULE'),
  ('PIL.PpmImagePlugin',
   'C:\\Users\\vines\\AppData\\Local\\Programs\\Python\\Python311\\Lib\\site-packages\\PIL\\PpmImagePlugin.py',
   'PYMODULE'),
  ('PIL.PsdImagePlugin',
   'C:\\Users\\vines\\AppData\\Local\\Programs\\Python\\Python311\\Lib\\site-packages\\PIL\\PsdImagePlugin.py',
   'PYMODULE'),
  ('PIL.PyAccess',
   'C:\\Users\\vines\\AppData\\Local\\Programs\\Python\\Python311\\Lib\\site-packages\\PIL\\PyAccess.py',
   'PYMODULE'),
  ('PIL.QoiImagePlugin',
   'C:\\Users\\vines\\AppData\\Local\\Programs\\Python\\Python311\\Lib\\site-packages\\PIL\\QoiImagePlugin.py',
   'PYMODULE'),
  ('PIL.SgiImagePlugin',
   'C:\\Users\\vines\\AppData\\Local\\Programs\\Python\\Python311\\Lib\\site-packages\\PIL\\SgiImagePlugin.py',
   'PYMODULE'),
  ('PIL.SpiderImagePlugin',
   'C:\\Users\\vines\\AppData\\Local\\Programs\\Python\\Python311\\Lib\\site-packages\\PIL\\SpiderImagePlugin.py',
   'PYMODULE'),
  ('PIL.SunImagePlugin',
   'C:\\Users\\vines\\AppData\\Local\\Programs\\Python\\Python311\\Lib\\site-packages\\PIL\\SunImagePlugin.py',
   'PYMODULE'),
  ('PIL.TgaImagePlugin',
   'C:\\Users\\vines\\AppData\\Local\\Programs\\Python\\Python311\\Lib\\site-packages\\PIL\\TgaImagePlugin.py',
   'PYMODULE'),
  ('PIL.TiffImagePlugin',
   'C:\\Users\\vines\\AppData\\Local\\Programs\\Python\\Python311\\Lib\\site-packages\\PIL\\TiffImagePlugin.py',
   'PYMODULE'),
  ('PIL.TiffTags',
   'C:\\Users\\vines\\AppData\\Local\\Programs\\Python\\Python311\\Lib\\site-packages\\PIL\\TiffTags.py',
   'PYMODULE'),
  ('PIL.WebPImagePlugin',
   'C:\\Users\\vines\\AppData\\Local\\Programs\\Python\\Python311\\Lib\\site-packages\\PIL\\WebPImagePlugin.py',
   'PYMODULE'),
  ('PIL.WmfImagePlugin',
   'C:\\Users\\vines\\AppData\\Local\\Programs\\Python\\Python311\\Lib\\site-packages\\PIL\\WmfImagePlugin.py',
   'PYMODULE'),
  ('PIL.XVThumbImagePlugin',
   'C:\\Users\\vines\\AppData\\Local\\Programs\\Python\\Python311\\Lib\\site-packages\\PIL\\XVThumbImagePlugin.py',
   'PYMODULE'),
  ('PIL.XbmImagePlugin',
   'C:\\Users\\vines\\AppData\\Local\\Programs\\Python\\Python311\\Lib\\site-packages\\PIL\\XbmImagePlugin.py',
   'PYMODULE'),
  ('PIL.XpmImagePlugin',
   'C:\\Users\\vines\\AppData\\Local\\Programs\\Python\\Python311\\Lib\\site-packages\\PIL\\XpmImagePlugin.py',
   'PYMODULE'),
  ('PIL._binary',
   'C:\\Users\\vines\\AppData\\Local\\Programs\\Python\\Python311\\Lib\\site-packages\\PIL\\_binary.py',
   'PYMODULE'),
  ('PIL._deprecate',
   'C:\\Users\\vines\\AppData\\Local\\Programs\\Python\\Python311\\Lib\\site-packages\\PIL\\_deprecate.py',
   'PYMODULE'),
  ('PIL._util',
   'C:\\Users\\vines\\AppData\\Local\\Programs\\Python\\Python311\\Lib\\site-packages\\PIL\\_util.py',
   'PYMODULE'),
  ('PIL._version',
   'C:\\Users\\vines\\AppData\\Local\\Programs\\Python\\Python311\\Lib\\site-packages\\PIL\\_version.py',
   'PYMODULE'),
  ('PIL.features',
   'C:\\Users\\vines\\AppData\\Local\\Programs\\Python\\Python311\\Lib\\site-packages\\PIL\\features.py',
   'PYMODULE'),
  ('__future__',
   'C:\\Users\\vines\\AppData\\Local\\Programs\\Python\\Python311\\Lib\\__future__.py',
   'PYMODULE'),
  ('_aix_support',
   'C:\\Users\\vines\\AppData\\Local\\Programs\\Python\\Python311\\Lib\\_aix_support.py',
   'PYMODULE'),
  ('_bootsubprocess',
   'C:\\Users\\vines\\AppData\\Local\\Programs\\Python\\Python311\\Lib\\_bootsubprocess.py',
   'PYMODULE'),
  ('_compat_pickle',
   'C:\\Users\\vines\\AppData\\Local\\Programs\\Python\\Python311\\Lib\\_compat_pickle.py',
   'PYMODULE'),
  ('_compression',
   'C:\\Users\\vines\\AppData\\Local\\Programs\\Python\\Python311\\Lib\\_compression.py',
   'PYMODULE'),
  ('_py_abc',
   'C:\\Users\\vines\\AppData\\Local\\Programs\\Python\\Python311\\Lib\\_py_abc.py',
   'PYMODULE'),
  ('_pydecimal',
   'C:\\Users\\vines\\AppData\\Local\\Programs\\Python\\Python311\\Lib\\_pydecimal.py',
   'PYMODULE'),
  ('_strptime',
   'C:\\Users\\vines\\AppData\\Local\\Programs\\Python\\Python311\\Lib\\_strptime.py',
   'PYMODULE'),
  ('_threading_local',
   'C:\\Users\\vines\\AppData\\Local\\Programs\\Python\\Python311\\Lib\\_threading_local.py',
   'PYMODULE'),
  ('argparse',
   'C:\\Users\\vines\\AppData\\Local\\Programs\\Python\\Python311\\Lib\\argparse.py',
   'PYMODULE'),
  ('ast',
   'C:\\Users\\vines\\AppData\\Local\\Programs\\Python\\Python311\\Lib\\ast.py',
   'PYMODULE'),
  ('base64',
   'C:\\Users\\vines\\AppData\\Local\\Programs\\Python\\Python311\\Lib\\base64.py',
   'PYMODULE'),
  ('bdb',
   'C:\\Users\\vines\\AppData\\Local\\Programs\\Python\\Python311\\Lib\\bdb.py',
   'PYMODULE'),
  ('bisect',
   'C:\\Users\\vines\\AppData\\Local\\Programs\\Python\\Python311\\Lib\\bisect.py',
   'PYMODULE'),
  ('bz2',
   'C:\\Users\\vines\\AppData\\Local\\Programs\\Python\\Python311\\Lib\\bz2.py',
   'PYMODULE'),
  ('calendar',
   'C:\\Users\\vines\\AppData\\Local\\Programs\\Python\\Python311\\Lib\\calendar.py',
   'PYMODULE'),
  ('climage',
   'C:\\Users\\vines\\AppData\\Local\\Programs\\Python\\Python311\\Lib\\site-packages\\climage\\__init__.py',
   'PYMODULE'),
  ('climage.__main__',
   'C:\\Users\\vines\\AppData\\Local\\Programs\\Python\\Python311\\Lib\\site-packages\\climage\\__main__.py',
   'PYMODULE'),
  ('climage.climage',
   'C:\\Users\\vines\\AppData\\Local\\Programs\\Python\\Python311\\Lib\\site-packages\\climage\\climage.py',
   'PYMODULE'),
  ('cmd',
   'C:\\Users\\vines\\AppData\\Local\\Programs\\Python\\Python311\\Lib\\cmd.py',
   'PYMODULE'),
  ('code',
   'C:\\Users\\vines\\AppData\\Local\\Programs\\Python\\Python311\\Lib\\code.py',
   'PYMODULE'),
  ('codeop',
   'C:\\Users\\vines\\AppData\\Local\\Programs\\Python\\Python311\\Lib\\codeop.py',
   'PYMODULE'),
  ('colorsys',
   'C:\\Users\\vines\\AppData\\Local\\Programs\\Python\\Python311\\Lib\\colorsys.py',
   'PYMODULE'),
  ('contextlib',
   'C:\\Users\\vines\\AppData\\Local\\Programs\\Python\\Python311\\Lib\\contextlib.py',
   'PYMODULE'),
  ('contextvars',
   'C:\\Users\\vines\\AppData\\Local\\Programs\\Python\\Python311\\Lib\\contextvars.py',
   'PYMODULE'),
  ('copy',
   'C:\\Users\\vines\\AppData\\Local\\Programs\\Python\\Python311\\Lib\\copy.py',
   'PYMODULE'),
  ('csv',
   'C:\\Users\\vines\\AppData\\Local\\Programs\\Python\\Python311\\Lib\\csv.py',
   'PYMODULE'),
  ('ctypes',
   'C:\\Users\\vines\\AppData\\Local\\Programs\\Python\\Python311\\Lib\\ctypes\\__init__.py',
   'PYMODULE'),
  ('ctypes._endian',
   'C:\\Users\\vines\\AppData\\Local\\Programs\\Python\\Python311\\Lib\\ctypes\\_endian.py',
   'PYMODULE'),
  ('dataclasses',
   'C:\\Users\\vines\\AppData\\Local\\Programs\\Python\\Python311\\Lib\\dataclasses.py',
   'PYMODULE'),
  ('datetime',
   'C:\\Users\\vines\\AppData\\Local\\Programs\\Python\\Python311\\Lib\\datetime.py',
   'PYMODULE'),
  ('decimal',
   'C:\\Users\\vines\\AppData\\Local\\Programs\\Python\\Python311\\Lib\\decimal.py',
   'PYMODULE'),
  ('dis',
   'C:\\Users\\vines\\AppData\\Local\\Programs\\Python\\Python311\\Lib\\dis.py',
   'PYMODULE'),
  ('email',
   'C:\\Users\\vines\\AppData\\Local\\Programs\\Python\\Python311\\Lib\\email\\__init__.py',
   'PYMODULE'),
  ('email._encoded_words',
   'C:\\Users\\vines\\AppData\\Local\\Programs\\Python\\Python311\\Lib\\email\\_encoded_words.py',
   'PYMODULE'),
  ('email._header_value_parser',
   'C:\\Users\\vines\\AppData\\Local\\Programs\\Python\\Python311\\Lib\\email\\_header_value_parser.py',
   'PYMODULE'),
  ('email._parseaddr',
   'C:\\Users\\vines\\AppData\\Local\\Programs\\Python\\Python311\\Lib\\email\\_parseaddr.py',
   'PYMODULE'),
  ('email._policybase',
   'C:\\Users\\vines\\AppData\\Local\\Programs\\Python\\Python311\\Lib\\email\\_policybase.py',
   'PYMODULE'),
  ('email.base64mime',
   'C:\\Users\\vines\\AppData\\Local\\Programs\\Python\\Python311\\Lib\\email\\base64mime.py',
   'PYMODULE'),
  ('email.charset',
   'C:\\Users\\vines\\AppData\\Local\\Programs\\Python\\Python311\\Lib\\email\\charset.py',
   'PYMODULE'),
  ('email.contentmanager',
   'C:\\Users\\vines\\AppData\\Local\\Programs\\Python\\Python311\\Lib\\email\\contentmanager.py',
   'PYMODULE'),
  ('email.encoders',
   'C:\\Users\\vines\\AppData\\Local\\Programs\\Python\\Python311\\Lib\\email\\encoders.py',
   'PYMODULE'),
  ('email.errors',
   'C:\\Users\\vines\\AppData\\Local\\Programs\\Python\\Python311\\Lib\\email\\errors.py',
   'PYMODULE'),
  ('email.feedparser',
   'C:\\Users\\vines\\AppData\\Local\\Programs\\Python\\Python311\\Lib\\email\\feedparser.py',
   'PYMODULE'),
  ('email.generator',
   'C:\\Users\\vines\\AppData\\Local\\Programs\\Python\\Python311\\Lib\\email\\generator.py',
   'PYMODULE'),
  ('email.header',
   'C:\\Users\\vines\\AppData\\Local\\Programs\\Python\\Python311\\Lib\\email\\header.py',
   'PYMODULE'),
  ('email.headerregistry',
   'C:\\Users\\vines\\AppData\\Local\\Programs\\Python\\Python311\\Lib\\email\\headerregistry.py',
   'PYMODULE'),
  ('email.iterators',
   'C:\\Users\\vines\\AppData\\Local\\Programs\\Python\\Python311\\Lib\\email\\iterators.py',
   'PYMODULE'),
  ('email.message',
   'C:\\Users\\vines\\AppData\\Local\\Programs\\Python\\Python311\\Lib\\email\\message.py',
   'PYMODULE'),
  ('email.parser',
   'C:\\Users\\vines\\AppData\\Local\\Programs\\Python\\Python311\\Lib\\email\\parser.py',
   'PYMODULE'),
  ('email.policy',
   'C:\\Users\\vines\\AppData\\Local\\Programs\\Python\\Python311\\Lib\\email\\policy.py',
   'PYMODULE'),
  ('email.quoprimime',
   'C:\\Users\\vines\\AppData\\Local\\Programs\\Python\\Python311\\Lib\\email\\quoprimime.py',
   'PYMODULE'),
  ('email.utils',
   'C:\\Users\\vines\\AppData\\Local\\Programs\\Python\\Python311\\Lib\\email\\utils.py',
   'PYMODULE'),
  ('fractions',
   'C:\\Users\\vines\\AppData\\Local\\Programs\\Python\\Python311\\Lib\\fractions.py',
   'PYMODULE'),
  ('ftplib',
   'C:\\Users\\vines\\AppData\\Local\\Programs\\Python\\Python311\\Lib\\ftplib.py',
   'PYMODULE'),
  ('getopt',
   'C:\\Users\\vines\\AppData\\Local\\Programs\\Python\\Python311\\Lib\\getopt.py',
   'PYMODULE'),
  ('getpass',
   'C:\\Users\\vines\\AppData\\Local\\Programs\\Python\\Python311\\Lib\\getpass.py',
   'PYMODULE'),
  ('gettext',
   'C:\\Users\\vines\\AppData\\Local\\Programs\\Python\\Python311\\Lib\\gettext.py',
   'PYMODULE'),
  ('glob',
   'C:\\Users\\vines\\AppData\\Local\\Programs\\Python\\Python311\\Lib\\glob.py',
   'PYMODULE'),
  ('gzip',
   'C:\\Users\\vines\\AppData\\Local\\Programs\\Python\\Python311\\Lib\\gzip.py',
   'PYMODULE'),
  ('hashlib',
   'C:\\Users\\vines\\AppData\\Local\\Programs\\Python\\Python311\\Lib\\hashlib.py',
   'PYMODULE'),
  ('html',
   'C:\\Users\\vines\\AppData\\Local\\Programs\\Python\\Python311\\Lib\\html\\__init__.py',
   'PYMODULE'),
  ('html.entities',
   'C:\\Users\\vines\\AppData\\Local\\Programs\\Python\\Python311\\Lib\\html\\entities.py',
   'PYMODULE'),
  ('http',
   'C:\\Users\\vines\\AppData\\Local\\Programs\\Python\\Python311\\Lib\\http\\__init__.py',
   'PYMODULE'),
  ('http.client',
   'C:\\Users\\vines\\AppData\\Local\\Programs\\Python\\Python311\\Lib\\http\\client.py',
   'PYMODULE'),
  ('http.cookiejar',
   'C:\\Users\\vines\\AppData\\Local\\Programs\\Python\\Python311\\Lib\\http\\cookiejar.py',
   'PYMODULE'),
  ('http.server',
   'C:\\Users\\vines\\AppData\\Local\\Programs\\Python\\Python311\\Lib\\http\\server.py',
   'PYMODULE'),
  ('imp',
   'C:\\Users\\vines\\AppData\\Local\\Programs\\Python\\Python311\\Lib\\imp.py',
   'PYMODULE'),
  ('importlib',
   'C:\\Users\\vines\\AppData\\Local\\Programs\\Python\\Python311\\Lib\\importlib\\__init__.py',
   'PYMODULE'),
  ('importlib._abc',
   'C:\\Users\\vines\\AppData\\Local\\Programs\\Python\\Python311\\Lib\\importlib\\_abc.py',
   'PYMODULE'),
  ('importlib._bootstrap',
   'C:\\Users\\vines\\AppData\\Local\\Programs\\Python\\Python311\\Lib\\importlib\\_bootstrap.py',
   'PYMODULE'),
  ('importlib._bootstrap_external',
   'C:\\Users\\vines\\AppData\\Local\\Programs\\Python\\Python311\\Lib\\importlib\\_bootstrap_external.py',
   'PYMODULE'),
  ('importlib.abc',
   'C:\\Users\\vines\\AppData\\Local\\Programs\\Python\\Python311\\Lib\\importlib\\abc.py',
   'PYMODULE'),
  ('importlib.machinery',
   'C:\\Users\\vines\\AppData\\Local\\Programs\\Python\\Python311\\Lib\\importlib\\machinery.py',
   'PYMODULE'),
  ('importlib.metadata',
   'C:\\Users\\vines\\AppData\\Local\\Programs\\Python\\Python311\\Lib\\importlib\\metadata\\__init__.py',
   'PYMODULE'),
  ('importlib.metadata._adapters',
   'C:\\Users\\vines\\AppData\\Local\\Programs\\Python\\Python311\\Lib\\importlib\\metadata\\_adapters.py',
   'PYMODULE'),
  ('importlib.metadata._collections',
   'C:\\Users\\vines\\AppData\\Local\\Programs\\Python\\Python311\\Lib\\importlib\\metadata\\_collections.py',
   'PYMODULE'),
  ('importlib.metadata._functools',
   'C:\\Users\\vines\\AppData\\Local\\Programs\\Python\\Python311\\Lib\\importlib\\metadata\\_functools.py',
   'PYMODULE'),
  ('importlib.metadata._itertools',
   'C:\\Users\\vines\\AppData\\Local\\Programs\\Python\\Python311\\Lib\\importlib\\metadata\\_itertools.py',
   'PYMODULE'),
  ('importlib.metadata._meta',
   'C:\\Users\\vines\\AppData\\Local\\Programs\\Python\\Python311\\Lib\\importlib\\metadata\\_meta.py',
   'PYMODULE'),
  ('importlib.metadata._text',
   'C:\\Users\\vines\\AppData\\Local\\Programs\\Python\\Python311\\Lib\\importlib\\metadata\\_text.py',
   'PYMODULE'),
  ('importlib.readers',
   'C:\\Users\\vines\\AppData\\Local\\Programs\\Python\\Python311\\Lib\\importlib\\readers.py',
   'PYMODULE'),
  ('importlib.resources',
   'C:\\Users\\vines\\AppData\\Local\\Programs\\Python\\Python311\\Lib\\importlib\\resources\\__init__.py',
   'PYMODULE'),
  ('importlib.resources._adapters',
   'C:\\Users\\vines\\AppData\\Local\\Programs\\Python\\Python311\\Lib\\importlib\\resources\\_adapters.py',
   'PYMODULE'),
  ('importlib.resources._common',
   'C:\\Users\\vines\\AppData\\Local\\Programs\\Python\\Python311\\Lib\\importlib\\resources\\_common.py',
   'PYMODULE'),
  ('importlib.resources._itertools',
   'C:\\Users\\vines\\AppData\\Local\\Programs\\Python\\Python311\\Lib\\importlib\\resources\\_itertools.py',
   'PYMODULE'),
  ('importlib.resources._legacy',
   'C:\\Users\\vines\\AppData\\Local\\Programs\\Python\\Python311\\Lib\\importlib\\resources\\_legacy.py',
   'PYMODULE'),
  ('importlib.resources.abc',
   'C:\\Users\\vines\\AppData\\Local\\Programs\\Python\\Python311\\Lib\\importlib\\resources\\abc.py',
   'PYMODULE'),
  ('importlib.resources.readers',
   'C:\\Users\\vines\\AppData\\Local\\Programs\\Python\\Python311\\Lib\\importlib\\resources\\readers.py',
   'PYMODULE'),
  ('importlib.util',
   'C:\\Users\\vines\\AppData\\Local\\Programs\\Python\\Python311\\Lib\\importlib\\util.py',
   'PYMODULE'),
  ('inspect',
   'C:\\Users\\vines\\AppData\\Local\\Programs\\Python\\Python311\\Lib\\inspect.py',
   'PYMODULE'),
  ('kdtree',
   'C:\\Users\\vines\\AppData\\Local\\Programs\\Python\\Python311\\Lib\\site-packages\\kdtree.py',
   'PYMODULE'),
  ('logging',
   'C:\\Users\\vines\\AppData\\Local\\Programs\\Python\\Python311\\Lib\\logging\\__init__.py',
   'PYMODULE'),
  ('lzma',
   'C:\\Users\\vines\\AppData\\Local\\Programs\\Python\\Python311\\Lib\\lzma.py',
   'PYMODULE'),
  ('mimetypes',
   'C:\\Users\\vines\\AppData\\Local\\Programs\\Python\\Python311\\Lib\\mimetypes.py',
   'PYMODULE'),
  ('netrc',
   'C:\\Users\\vines\\AppData\\Local\\Programs\\Python\\Python311\\Lib\\netrc.py',
   'PYMODULE'),
  ('nturl2path',
   'C:\\Users\\vines\\AppData\\Local\\Programs\\Python\\Python311\\Lib\\nturl2path.py',
   'PYMODULE'),
  ('numbers',
   'C:\\Users\\vines\\AppData\\Local\\Programs\\Python\\Python311\\Lib\\numbers.py',
   'PYMODULE'),
  ('opcode',
   'C:\\Users\\vines\\AppData\\Local\\Programs\\Python\\Python311\\Lib\\opcode.py',
   'PYMODULE'),
  ('pdb',
   'C:\\Users\\vines\\AppData\\Local\\Programs\\Python\\Python311\\Lib\\pdb.py',
   'PYMODULE'),
  ('pickle',
   'C:\\Users\\vines\\AppData\\Local\\Programs\\Python\\Python311\\Lib\\pickle.py',
   'PYMODULE'),
  ('pkg_resources',
   'C:\\Users\\vines\\AppData\\Local\\Programs\\Python\\Python311\\Lib\\site-packages\\pkg_resources\\__init__.py',
   'PYMODULE'),
  ('pkg_resources._vendor',
   'C:\\Users\\vines\\AppData\\Local\\Programs\\Python\\Python311\\Lib\\site-packages\\pkg_resources\\_vendor\\__init__.py',
   'PYMODULE'),
  ('pkg_resources._vendor.appdirs',
   'C:\\Users\\vines\\AppData\\Local\\Programs\\Python\\Python311\\Lib\\site-packages\\pkg_resources\\_vendor\\appdirs.py',
   'PYMODULE'),
  ('pkg_resources._vendor.importlib_resources',
   'C:\\Users\\vines\\AppData\\Local\\Programs\\Python\\Python311\\Lib\\site-packages\\pkg_resources\\_vendor\\importlib_resources\\__init__.py',
   'PYMODULE'),
  ('pkg_resources._vendor.importlib_resources._adapters',
   'C:\\Users\\vines\\AppData\\Local\\Programs\\Python\\Python311\\Lib\\site-packages\\pkg_resources\\_vendor\\importlib_resources\\_adapters.py',
   'PYMODULE'),
  ('pkg_resources._vendor.importlib_resources._common',
   'C:\\Users\\vines\\AppData\\Local\\Programs\\Python\\Python311\\Lib\\site-packages\\pkg_resources\\_vendor\\importlib_resources\\_common.py',
   'PYMODULE'),
  ('pkg_resources._vendor.importlib_resources._compat',
   'C:\\Users\\vines\\AppData\\Local\\Programs\\Python\\Python311\\Lib\\site-packages\\pkg_resources\\_vendor\\importlib_resources\\_compat.py',
   'PYMODULE'),
  ('pkg_resources._vendor.importlib_resources._itertools',
   'C:\\Users\\vines\\AppData\\Local\\Programs\\Python\\Python311\\Lib\\site-packages\\pkg_resources\\_vendor\\importlib_resources\\_itertools.py',
   'PYMODULE'),
  ('pkg_resources._vendor.importlib_resources._legacy',
   'C:\\Users\\vines\\AppData\\Local\\Programs\\Python\\Python311\\Lib\\site-packages\\pkg_resources\\_vendor\\importlib_resources\\_legacy.py',
   'PYMODULE'),
  ('pkg_resources._vendor.importlib_resources.abc',
   'C:\\Users\\vines\\AppData\\Local\\Programs\\Python\\Python311\\Lib\\site-packages\\pkg_resources\\_vendor\\importlib_resources\\abc.py',
   'PYMODULE'),
  ('pkg_resources._vendor.importlib_resources.readers',
   'C:\\Users\\vines\\AppData\\Local\\Programs\\Python\\Python311\\Lib\\site-packages\\pkg_resources\\_vendor\\importlib_resources\\readers.py',
   'PYMODULE'),
  ('pkg_resources._vendor.importlib_resources.simple',
   'C:\\Users\\vines\\AppData\\Local\\Programs\\Python\\Python311\\Lib\\site-packages\\pkg_resources\\_vendor\\importlib_resources\\simple.py',
   'PYMODULE'),
  ('pkg_resources._vendor.jaraco',
   'C:\\Users\\vines\\AppData\\Local\\Programs\\Python\\Python311\\Lib\\site-packages\\pkg_resources\\_vendor\\jaraco\\__init__.py',
   'PYMODULE'),
  ('pkg_resources._vendor.jaraco.context',
   'C:\\Users\\vines\\AppData\\Local\\Programs\\Python\\Python311\\Lib\\site-packages\\pkg_resources\\_vendor\\jaraco\\context.py',
   'PYMODULE'),
  ('pkg_resources._vendor.jaraco.functools',
   'C:\\Users\\vines\\AppData\\Local\\Programs\\Python\\Python311\\Lib\\site-packages\\pkg_resources\\_vendor\\jaraco\\functools.py',
   'PYMODULE'),
  ('pkg_resources._vendor.jaraco.text',
   'C:\\Users\\vines\\AppData\\Local\\Programs\\Python\\Python311\\Lib\\site-packages\\pkg_resources\\_vendor\\jaraco\\text\\__init__.py',
   'PYMODULE'),
  ('pkg_resources._vendor.more_itertools',
   'C:\\Users\\vines\\AppData\\Local\\Programs\\Python\\Python311\\Lib\\site-packages\\pkg_resources\\_vendor\\more_itertools\\__init__.py',
   'PYMODULE'),
  ('pkg_resources._vendor.more_itertools.more',
   'C:\\Users\\vines\\AppData\\Local\\Programs\\Python\\Python311\\Lib\\site-packages\\pkg_resources\\_vendor\\more_itertools\\more.py',
   'PYMODULE'),
  ('pkg_resources._vendor.more_itertools.recipes',
   'C:\\Users\\vines\\AppData\\Local\\Programs\\Python\\Python311\\Lib\\site-packages\\pkg_resources\\_vendor\\more_itertools\\recipes.py',
   'PYMODULE'),
  ('pkg_resources._vendor.packaging',
   'C:\\Users\\vines\\AppData\\Local\\Programs\\Python\\Python311\\Lib\\site-packages\\pkg_resources\\_vendor\\packaging\\__init__.py',
   'PYMODULE'),
  ('pkg_resources._vendor.packaging.__about__',
   'C:\\Users\\vines\\AppData\\Local\\Programs\\Python\\Python311\\Lib\\site-packages\\pkg_resources\\_vendor\\packaging\\__about__.py',
   'PYMODULE'),
  ('pkg_resources._vendor.packaging._manylinux',
   'C:\\Users\\vines\\AppData\\Local\\Programs\\Python\\Python311\\Lib\\site-packages\\pkg_resources\\_vendor\\packaging\\_manylinux.py',
   'PYMODULE'),
  ('pkg_resources._vendor.packaging._musllinux',
   'C:\\Users\\vines\\AppData\\Local\\Programs\\Python\\Python311\\Lib\\site-packages\\pkg_resources\\_vendor\\packaging\\_musllinux.py',
   'PYMODULE'),
  ('pkg_resources._vendor.packaging._structures',
   'C:\\Users\\vines\\AppData\\Local\\Programs\\Python\\Python311\\Lib\\site-packages\\pkg_resources\\_vendor\\packaging\\_structures.py',
   'PYMODULE'),
  ('pkg_resources._vendor.packaging.markers',
   'C:\\Users\\vines\\AppData\\Local\\Programs\\Python\\Python311\\Lib\\site-packages\\pkg_resources\\_vendor\\packaging\\markers.py',
   'PYMODULE'),
  ('pkg_resources._vendor.packaging.requirements',
   'C:\\Users\\vines\\AppData\\Local\\Programs\\Python\\Python311\\Lib\\site-packages\\pkg_resources\\_vendor\\packaging\\requirements.py',
   'PYMODULE'),
  ('pkg_resources._vendor.packaging.specifiers',
   'C:\\Users\\vines\\AppData\\Local\\Programs\\Python\\Python311\\Lib\\site-packages\\pkg_resources\\_vendor\\packaging\\specifiers.py',
   'PYMODULE'),
  ('pkg_resources._vendor.packaging.tags',
   'C:\\Users\\vines\\AppData\\Local\\Programs\\Python\\Python311\\Lib\\site-packages\\pkg_resources\\_vendor\\packaging\\tags.py',
   'PYMODULE'),
  ('pkg_resources._vendor.packaging.utils',
   'C:\\Users\\vines\\AppData\\Local\\Programs\\Python\\Python311\\Lib\\site-packages\\pkg_resources\\_vendor\\packaging\\utils.py',
   'PYMODULE'),
  ('pkg_resources._vendor.packaging.version',
   'C:\\Users\\vines\\AppData\\Local\\Programs\\Python\\Python311\\Lib\\site-packages\\pkg_resources\\_vendor\\packaging\\version.py',
   'PYMODULE'),
  ('pkg_resources._vendor.pyparsing',
   'C:\\Users\\vines\\AppData\\Local\\Programs\\Python\\Python311\\Lib\\site-packages\\pkg_resources\\_vendor\\pyparsing\\__init__.py',
   'PYMODULE'),
  ('pkg_resources._vendor.pyparsing.actions',
   'C:\\Users\\vines\\AppData\\Local\\Programs\\Python\\Python311\\Lib\\site-packages\\pkg_resources\\_vendor\\pyparsing\\actions.py',
   'PYMODULE'),
  ('pkg_resources._vendor.pyparsing.common',
   'C:\\Users\\vines\\AppData\\Local\\Programs\\Python\\Python311\\Lib\\site-packages\\pkg_resources\\_vendor\\pyparsing\\common.py',
   'PYMODULE'),
  ('pkg_resources._vendor.pyparsing.core',
   'C:\\Users\\vines\\AppData\\Local\\Programs\\Python\\Python311\\Lib\\site-packages\\pkg_resources\\_vendor\\pyparsing\\core.py',
   'PYMODULE'),
  ('pkg_resources._vendor.pyparsing.diagram',
   'C:\\Users\\vines\\AppData\\Local\\Programs\\Python\\Python311\\Lib\\site-packages\\pkg_resources\\_vendor\\pyparsing\\diagram\\__init__.py',
   'PYMODULE'),
  ('pkg_resources._vendor.pyparsing.exceptions',
   'C:\\Users\\vines\\AppData\\Local\\Programs\\Python\\Python311\\Lib\\site-packages\\pkg_resources\\_vendor\\pyparsing\\exceptions.py',
   'PYMODULE'),
  ('pkg_resources._vendor.pyparsing.helpers',
   'C:\\Users\\vines\\AppData\\Local\\Programs\\Python\\Python311\\Lib\\site-packages\\pkg_resources\\_vendor\\pyparsing\\helpers.py',
   'PYMODULE'),
  ('pkg_resources._vendor.pyparsing.results',
   'C:\\Users\\vines\\AppData\\Local\\Programs\\Python\\Python311\\Lib\\site-packages\\pkg_resources\\_vendor\\pyparsing\\results.py',
   'PYMODULE'),
  ('pkg_resources._vendor.pyparsing.testing',
   'C:\\Users\\vines\\AppData\\Local\\Programs\\Python\\Python311\\Lib\\site-packages\\pkg_resources\\_vendor\\pyparsing\\testing.py',
   'PYMODULE'),
  ('pkg_resources._vendor.pyparsing.unicode',
   'C:\\Users\\vines\\AppData\\Local\\Programs\\Python\\Python311\\Lib\\site-packages\\pkg_resources\\_vendor\\pyparsing\\unicode.py',
   'PYMODULE'),
  ('pkg_resources._vendor.pyparsing.util',
   'C:\\Users\\vines\\AppData\\Local\\Programs\\Python\\Python311\\Lib\\site-packages\\pkg_resources\\_vendor\\pyparsing\\util.py',
   'PYMODULE'),
  ('pkg_resources._vendor.zipp',
   'C:\\Users\\vines\\AppData\\Local\\Programs\\Python\\Python311\\Lib\\site-packages\\pkg_resources\\_vendor\\zipp.py',
   'PYMODULE'),
  ('pkg_resources.extern',
   'C:\\Users\\vines\\AppData\\Local\\Programs\\Python\\Python311\\Lib\\site-packages\\pkg_resources\\extern\\__init__.py',
   'PYMODULE'),
  ('pkgutil',
   'C:\\Users\\vines\\AppData\\Local\\Programs\\Python\\Python311\\Lib\\pkgutil.py',
   'PYMODULE'),
  ('platform',
   'C:\\Users\\vines\\AppData\\Local\\Programs\\Python\\Python311\\Lib\\platform.py',
   'PYMODULE'),
  ('plistlib',
   'C:\\Users\\vines\\AppData\\Local\\Programs\\Python\\Python311\\Lib\\plistlib.py',
   'PYMODULE'),
  ('pprint',
   'C:\\Users\\vines\\AppData\\Local\\Programs\\Python\\Python311\\Lib\\pprint.py',
   'PYMODULE'),
  ('py_compile',
   'C:\\Users\\vines\\AppData\\Local\\Programs\\Python\\Python311\\Lib\\py_compile.py',
   'PYMODULE'),
  ('pydoc',
   'C:\\Users\\vines\\AppData\\Local\\Programs\\Python\\Python311\\Lib\\pydoc.py',
   'PYMODULE'),
  ('pydoc_data',
   'C:\\Users\\vines\\AppData\\Local\\Programs\\Python\\Python311\\Lib\\pydoc_data\\__init__.py',
   'PYMODULE'),
  ('pydoc_data.topics',
   'C:\\Users\\vines\\AppData\\Local\\Programs\\Python\\Python311\\Lib\\pydoc_data\\topics.py',
   'PYMODULE'),
  ('pygame',
   'C:\\Users\\vines\\AppData\\Local\\Programs\\Python\\Python311\\Lib\\site-packages\\pygame\\__init__.py',
   'PYMODULE'),
  ('pygame.colordict',
   'C:\\Users\\vines\\AppData\\Local\\Programs\\Python\\Python311\\Lib\\site-packages\\pygame\\colordict.py',
   'PYMODULE'),
  ('pygame.cursors',
   'C:\\Users\\vines\\AppData\\Local\\Programs\\Python\\Python311\\Lib\\site-packages\\pygame\\cursors.py',
   'PYMODULE'),
  ('pygame.fastevent',
   'C:\\Users\\vines\\AppData\\Local\\Programs\\Python\\Python311\\Lib\\site-packages\\pygame\\fastevent.py',
   'PYMODULE'),
  ('pygame.ftfont',
   'C:\\Users\\vines\\AppData\\Local\\Programs\\Python\\Python311\\Lib\\site-packages\\pygame\\ftfont.py',
   'PYMODULE'),
  ('pygame.macosx',
   'C:\\Users\\vines\\AppData\\Local\\Programs\\Python\\Python311\\Lib\\site-packages\\pygame\\macosx.py',
   'PYMODULE'),
  ('pygame.pkgdata',
   'C:\\Users\\vines\\AppData\\Local\\Programs\\Python\\Python311\\Lib\\site-packages\\pygame\\pkgdata.py',
   'PYMODULE'),
  ('pygame.sndarray',
   'C:\\Users\\vines\\AppData\\Local\\Programs\\Python\\Python311\\Lib\\site-packages\\pygame\\sndarray.py',
   'PYMODULE'),
  ('pygame.sprite',
   'C:\\Users\\vines\\AppData\\Local\\Programs\\Python\\Python311\\Lib\\site-packages\\pygame\\sprite.py',
   'PYMODULE'),
  ('pygame.surfarray',
   'C:\\Users\\vines\\AppData\\Local\\Programs\\Python\\Python311\\Lib\\site-packages\\pygame\\surfarray.py',
   'PYMODULE'),
  ('pygame.sysfont',
   'C:\\Users\\vines\\AppData\\Local\\Programs\\Python\\Python311\\Lib\\site-packages\\pygame\\sysfont.py',
   'PYMODULE'),
  ('pygame.threads',
   'C:\\Users\\vines\\AppData\\Local\\Programs\\Python\\Python311\\Lib\\site-packages\\pygame\\threads\\__init__.py',
   'PYMODULE'),
  ('pygame.version',
   'C:\\Users\\vines\\AppData\\Local\\Programs\\Python\\Python311\\Lib\\site-packages\\pygame\\version.py',
   'PYMODULE'),
  ('queue',
   'C:\\Users\\vines\\AppData\\Local\\Programs\\Python\\Python311\\Lib\\queue.py',
   'PYMODULE'),
  ('quopri',
   'C:\\Users\\vines\\AppData\\Local\\Programs\\Python\\Python311\\Lib\\quopri.py',
   'PYMODULE'),
  ('random',
   'C:\\Users\\vines\\AppData\\Local\\Programs\\Python\\Python311\\Lib\\random.py',
   'PYMODULE'),
  ('runpy',
   'C:\\Users\\vines\\AppData\\Local\\Programs\\Python\\Python311\\Lib\\runpy.py',
   'PYMODULE'),
  ('selectors',
   'C:\\Users\\vines\\AppData\\Local\\Programs\\Python\\Python311\\Lib\\selectors.py',
   'PYMODULE'),
  ('shlex',
   'C:\\Users\\vines\\AppData\\Local\\Programs\\Python\\Python311\\Lib\\shlex.py',
   'PYMODULE'),
  ('shutil',
   'C:\\Users\\vines\\AppData\\Local\\Programs\\Python\\Python311\\Lib\\shutil.py',
   'PYMODULE'),
  ('signal',
   'C:\\Users\\vines\\AppData\\Local\\Programs\\Python\\Python311\\Lib\\signal.py',
   'PYMODULE'),
  ('socket',
   'C:\\Users\\vines\\AppData\\Local\\Programs\\Python\\Python311\\Lib\\socket.py',
   'PYMODULE'),
  ('socketserver',
   'C:\\Users\\vines\\AppData\\Local\\Programs\\Python\\Python311\\Lib\\socketserver.py',
   'PYMODULE'),
  ('ssl',
   'C:\\Users\\vines\\AppData\\Local\\Programs\\Python\\Python311\\Lib\\ssl.py',
   'PYMODULE'),
  ('statistics',
   'C:\\Users\\vines\\AppData\\Local\\Programs\\Python\\Python311\\Lib\\statistics.py',
   'PYMODULE'),
  ('string',
   'C:\\Users\\vines\\AppData\\Local\\Programs\\Python\\Python311\\Lib\\string.py',
   'PYMODULE'),
  ('stringprep',
   'C:\\Users\\vines\\AppData\\Local\\Programs\\Python\\Python311\\Lib\\stringprep.py',
   'PYMODULE'),
  ('subprocess',
   'C:\\Users\\vines\\AppData\\Local\\Programs\\Python\\Python311\\Lib\\subprocess.py',
   'PYMODULE'),
  ('sysconfig',
   'C:\\Users\\vines\\AppData\\Local\\Programs\\Python\\Python311\\Lib\\sysconfig.py',
   'PYMODULE'),
  ('tarfile',
   'C:\\Users\\vines\\AppData\\Local\\Programs\\Python\\Python311\\Lib\\tarfile.py',
   'PYMODULE'),
  ('tempfile',
   'C:\\Users\\vines\\AppData\\Local\\Programs\\Python\\Python311\\Lib\\tempfile.py',
   'PYMODULE'),
  ('textwrap',
   'C:\\Users\\vines\\AppData\\Local\\Programs\\Python\\Python311\\Lib\\textwrap.py',
   'PYMODULE'),
  ('threading',
   'C:\\Users\\vines\\AppData\\Local\\Programs\\Python\\Python311\\Lib\\threading.py',
   'PYMODULE'),
  ('tracemalloc',
   'C:\\Users\\vines\\AppData\\Local\\Programs\\Python\\Python311\\Lib\\tracemalloc.py',
   'PYMODULE'),
  ('tty',
   'C:\\Users\\vines\\AppData\\Local\\Programs\\Python\\Python311\\Lib\\tty.py',
   'PYMODULE'),
  ('typing',
   'C:\\Users\\vines\\AppData\\Local\\Programs\\Python\\Python311\\Lib\\typing.py',
   'PYMODULE'),
  ('webbrowser',
   'C:\\Users\\vines\\AppData\\Local\\Programs\\Python\\Python311\\Lib\\webbrowser.py',
   'PYMODULE'),
  ('xml',
   'C:\\Users\\vines\\AppData\\Local\\Programs\\Python\\Python311\\Lib\\xml\\__init__.py',
   'PYMODULE'),
  ('xml.parsers',
   'C:\\Users\\vines\\AppData\\Local\\Programs\\Python\\Python311\\Lib\\xml\\parsers\\__init__.py',
   'PYMODULE'),
  ('xml.parsers.expat',
   'C:\\Users\\vines\\AppData\\Local\\Programs\\Python\\Python311\\Lib\\xml\\parsers\\expat.py',
   'PYMODULE'),
  ('xml.sax',
   'C:\\Users\\vines\\AppData\\Local\\Programs\\Python\\Python311\\Lib\\xml\\sax\\__init__.py',
   'PYMODULE'),
  ('xml.sax._exceptions',
   'C:\\Users\\vines\\AppData\\Local\\Programs\\Python\\Python311\\Lib\\xml\\sax\\_exceptions.py',
   'PYMODULE'),
  ('xml.sax.expatreader',
   'C:\\Users\\vines\\AppData\\Local\\Programs\\Python\\Python311\\Lib\\xml\\sax\\expatreader.py',
   'PYMODULE'),
  ('xml.sax.handler',
   'C:\\Users\\vines\\AppData\\Local\\Programs\\Python\\Python311\\Lib\\xml\\sax\\handler.py',
   'PYMODULE'),
  ('xml.sax.saxutils',
   'C:\\Users\\vines\\AppData\\Local\\Programs\\Python\\Python311\\Lib\\xml\\sax\\saxutils.py',
   'PYMODULE'),
  ('xml.sax.xmlreader',
   'C:\\Users\\vines\\AppData\\Local\\Programs\\Python\\Python311\\Lib\\xml\\sax\\xmlreader.py',
   'PYMODULE'),
  ('zipfile',
   'C:\\Users\\vines\\AppData\\Local\\Programs\\Python\\Python311\\Lib\\zipfile.py',
   'PYMODULE'),
  ('zipimport',
   'C:\\Users\\vines\\AppData\\Local\\Programs\\Python\\Python311\\Lib\\zipimport.py',
   'PYMODULE')])
